strict graph {
	graph [bb="-877.53,-940.88,979.28,1053.8",
		overlap=False,
		splines=True
	];
	node [label="\N"];
	edge [len=2];
	eunode0	 [height=0.5,
		pos="-142.28,-65.028",
		width=1.1193];
	eunode1	 [height=0.5,
		pos="28.067,56.991",
		width=1.1193];
	eunode0 -- eunode1	 [label=eue0,
		lp="-69.98,3.5721",
		pos="-120.7,-49.575 -87.938,-26.104 -25.995,18.266 6.6673,41.663"];
	eunode2	 [height=0.5,
		pos="-89.157,61.47",
		width=1.1193];
	eunode0 -- eunode2	 [label=eue2,
		lp="-128.69,5.7836",
		pos="-134.78,-47.173 -124.66,-23.064 -106.72,19.643 -96.617,43.705"];
	usnode0	 [height=0.5,
		pos="-28.937,-37.619",
		width=1.1193];
	eunode0 -- usnode0	 [label=sube0,
		lp="-85.749,-58.858",
		pos="-106.73,-56.431 -93.354,-53.197 -78.149,-49.52 -64.752,-46.28"];
	eunode1 -- eunode2	 [label=eue1,
		lp="-30.506,51.729",
		pos="-12.275,58.532 -24.063,58.983 -36.948,59.475 -48.741,59.926"];
	usnode2	 [height=0.5,
		pos="-5.6973,135.51",
		width=1.1193];
	eunode2 -- usnode2	 [label=sube1,
		lp="-63.226,106.17",
		pos="-70.634,77.903 -56.708,90.258 -37.724,107.1 -23.881,119.38"];
	usnode0 -- usnode2	 [label=use2,
		lp="-23.569,41.435",
		pos="-26.494,-19.418 -22.03,13.833 -12.608,84.034 -8.1426,117.3"];
	usnode1	 [height=0.5,
		pos="108.82,-68.039",
		width=1.1193];
	usnode0 -- usnode1	 [label=use0,
		lp="27.307,-45.3",
		pos="7.2558,-45.612 27.344,-50.048 52.26,-55.55 72.386,-59.994"];
	usnode1 -- usnode2	 [label=use1,
		lp="82.457,64.627",
		pos="105.77,-50.065 100.95,-24.839 89.992,21.92 69.962,57.118 55.648,82.271 31.419,105.36 14.239,119.87"];
	isp1node3	 [height=0.5,
		pos="-290.71,-416.88",
		width=1.2999];
	isp1node4	 [height=0.5,
		pos="-373.68,-578",
		width=1.2999];
	isp1node3 -- isp1node4	 [label=isp1e4,
		lp="-350.16,-489.88",
		pos="-299.9,-434.74 -315.85,-465.71 -348.47,-529.03 -364.45,-560.06"];
	client8	 [height=0.5,
		pos="-463.99,-641.6",
		width=0.95686];
	isp1node4 -- client8	 [label=cliente8,
		lp="-441.58,-603.18",
		pos="-396.47,-594.05 -410.89,-604.2 -429.38,-617.23 -443.37,-627.08"];
	client29	 [height=0.5,
		pos="-345.93,-706.1",
		width=1.0832];
	isp1node4 -- client29	 [label=cliente29,
		lp="-384.79,-634.61",
		pos="-369.77,-596.08 -364.48,-620.49 -355.11,-663.74 -349.83,-688.11"];
	isp1node0	 [height=0.5,
		pos="-181.75,-242.46",
		width=1.2999];
	isp1node0 -- eunode0	 [label=uplinkisp1e0,
		lp="-197.02,-146.28",
		pos="-177.74,-224.47 -170.18,-190.47 -153.86,-117.11 -146.29,-83.066"];
	isp1node0 -- isp1node3	 [label=isp1e0,
		lp="-254.2,-322.14",
		pos="-192.79,-260.15 -213.68,-293.58 -258.72,-365.69 -279.63,-399.15"];
	client18	 [height=0.5,
		pos="-174.53,-356.27",
		width=1.0832];
	isp1node0 -- client18	 [label=cliente18,
		lp="-203.15,-291.67",
		pos="-180.6,-260.5 -179.26,-281.68 -177.05,-316.63 -175.7,-337.94"];
	client23	 [height=0.5,
		pos="-87.047,-352.2",
		width=1.0832];
	isp1node0 -- client23	 [label=cliente23,
		lp="-109.33,-289.91",
		pos="-166.95,-259.61 -149.16,-280.23 -119.48,-314.61 -101.74,-335.17"];
	isp1node1	 [height=0.5,
		pos="-282.14,-753.78",
		width=1.2999];
	isp1node1 -- isp1node4	 [label=isp1e1,
		lp="-344.44,-657.82",
		pos="-290.57,-735.98 -294.9,-726.94 -300.31,-715.81 -305.33,-705.94 -325.56,-666.22 -350.49,-620.26 -363.95,-595.68"];
	isp1node5	 [height=0.5,
		pos="-295.26,-922.88",
		width=1.2999];
	isp1node1 -- isp1node5	 [label=isp1e2,
		lp="-306.7,-830.74",
		pos="-283.55,-771.88 -286.07,-804.34 -291.32,-872.11 -293.85,-904.66"];
	isp1node2	 [height=0.5,
		pos="-563.08,-656",
		width=1.2999];
	isp1node2 -- isp1node4	 [label=isp1e3,
		lp="-486.28,-609.46",
		pos="-530.95,-642.77 -496.02,-628.38 -440.52,-605.52 -405.65,-591.16"];
	client38	 [height=0.5,
		pos="-581.55,-833.5",
		width=1.0832];
	isp1node2 -- client38	 [label=cliente38,
		lp="-597.31,-737.21",
		pos="-564.95,-674 -568.49,-708.02 -576.13,-781.4 -579.67,-815.46"];
	client40	 [height=0.5,
		pos="-731.54,-640.51",
		width=1.0832];
	isp1node2 -- client40	 [label=cliente40,
		lp="-638.85,-655.38",
		pos="-608.67,-651.81 -635.07,-649.38 -667.95,-646.35 -693.05,-644.05"];
	client42	 [height=0.5,
		pos="-689.9,-755.84",
		width=1.0832];
	isp1node2 -- client42	 [label=cliente42,
		lp="-652.05,-698.86",
		pos="-583.74,-672.26 -607.6,-691.05 -646.59,-721.74 -670.09,-740.25"];
	isp2node1	 [height=0.5,
		pos="372.66,426.74",
		width=1.2999];
	isp2node2	 [height=0.5,
		pos="216.11,354.6",
		width=1.2999];
	isp2node1 -- isp2node2	 [label=isp2e2,
		lp="276.33,398.14",
		pos="342.48,412.83 314.76,400.06 273.9,381.23 246.21,368.47"];
	isp2node4	 [height=0.5,
		pos="506.74,550.36",
		width=1.2999];
	isp2node1 -- isp2node4	 [label=isp2e4,
		lp="421.6,495.96",
		pos="390.75,443.41 416.34,467.01 462.85,509.89 488.52,533.56"];
	isp2node3	 [height=0.5,
		pos="389.32,245.49",
		width=1.2999];
	isp2node1 -- isp2node3	 [label=isp2e3,
		lp="362.98,343.77",
		pos="374.32,408.7 377.51,374.05 384.44,298.54 387.64,263.73"];
	client33	 [height=0.5,
		pos="211.58,529.13",
		width=1.0832];
	isp2node2 -- client33	 [label=cliente33,
		lp="188.85,449.24",
		pos="215.65,372.62 214.78,406.06 212.93,477.38 212.05,510.94"];
	isp2node5	 [height=0.5,
		pos="545.92,393.37",
		width=1.2999];
	isp2node4 -- isp2node5	 [label=isp2e6,
		lp="508.28,479.57",
		pos="511.24,532.35 518.75,502.23 533.8,441.95 541.36,411.65"];
	isp2node3 -- isp2node5	 [label=isp2e5,
		lp="449.49,326.8",
		pos="406.98,262.17 437.05,290.57 497.89,348.01 528.08,376.52"];
	client1	 [height=0.5,
		pos="415.56,360.95",
		width=0.95686];
	isp2node3 -- client1	 [label=cliente1,
		lp="380.96,310.81",
		pos="393.42,263.53 398.35,285.22 406.57,321.4 411.49,343.04"];
	client7	 [height=0.5,
		pos="439.87,121.31",
		width=0.95686];
	isp2node3 -- client7	 [label=cliente7,
		lp="393.1,190.88",
		pos="396.56,227.7 406.17,204.09 423.04,162.66 432.64,139.07"];
	client12	 [height=0.5,
		pos="519.75,130.34",
		width=1.0832];
	isp2node3 -- client12	 [label=cliente12,
		lp="480.1,194.92",
		pos="408.28,228.75 433.3,206.67 477.01,168.08 501.6,146.37"];
	client14	 [height=0.5,
		pos="519.22,274.47",
		width=1.0832];
	isp2node3 -- client14	 [label=cliente14,
		lp="469.71,253.14",
		pos="430.06,254.58 447.33,258.43 467.25,262.88 483.88,266.59"];
	client35	 [height=0.5,
		pos="560.94,199.96",
		width=1.0832];
	isp2node3 -- client35	 [label=cliente35,
		lp="453.17,214.42",
		pos="428.26,235.16 458.03,227.26 498.65,216.48 527.08,208.94"];
	client16	 [height=0.5,
		pos="722.83,384.35",
		width=1.0832];
	isp2node5 -- client16	 [label=cliente16,
		lp="651.18,381.14",
		pos="592.4,391 620.86,389.55 656.87,387.71 683.84,386.34"];
	client37	 [height=0.5,
		pos="663.18,514.36",
		width=1.0832];
	isp2node5 -- client37	 [label=cliente37,
		lp="579.87,461.69",
		pos="562.47,410.45 584.95,433.64 624.86,474.82 647.09,497.76"];
	isp2node0	 [height=0.5,
		pos="202.5,172.62",
		width=1.2999];
	isp2node0 -- eunode1	 [label=uplinkisp2e0,
		lp="79.626,121.87",
		pos="178.97,157.02 145.31,134.71 83.812,93.943 50.667,71.972"];
	isp2node0 -- isp2node2	 [label=isp2e0,
		lp="191.31,271.17",
		pos="203.85,190.73 206.46,225.61 212.16,301.74 214.76,336.56"];
	isp2node0 -- isp2node3	 [label=isp2e1,
		lp="277.92,216.56",
		pos="235.47,185.48 269.51,198.76 322.33,219.36 356.37,232.64"];
	client6	 [height=0.5,
		pos="136.35,261.74",
		width=0.95686];
	isp2node0 -- client6	 [label=cliente6,
		lp="147.63,225.07",
		pos="189.43,190.22 177.68,206.05 160.54,229.15 148.94,244.77"];
	isp3node0	 [height=0.5,
		pos="-292.74,-37.947",
		width=1.2999];
	isp3node0 -- eunode0	 [label=uplinkisp3e0,
		lp="-232.07,-59.517",
		pos="-250.02,-45.635 -227.87,-49.623 -201.06,-54.449 -179.72,-58.289"];
	isp3node5	 [height=0.5,
		pos="-498.02,9.3341",
		width=1.2999];
	isp3node0 -- isp3node5	 [label=isp3e2,
		lp="-413.43,-6.7947",
		pos="-333.29,-28.606 -369.28,-20.317 -421.58,-8.271 -457.55,0.012231"];
	isp3node2	 [height=0.5,
		pos="-425.07,107.88",
		width=1.2999];
	isp3node0 -- isp3node2	 [label=isp3e0,
		lp="-376.67,42.212",
		pos="-308.18,-20.933 -333.54,7.0164 -383.76,62.353 -409.32,90.525"];
	isp3node4	 [height=0.5,
		pos="-483.33,-137.35",
		width=1.2999];
	isp3node0 -- isp3node4	 [label=isp3e1,
		lp="-406.17,-80.216",
		pos="-320.86,-52.614 -357,-71.461 -419.36,-103.98 -455.4,-122.78"];
	client11	 [height=0.5,
		pos="-409.41,-37.413",
		width=1.0832];
	isp3node0 -- client11	 [label=cliente11,
		lp="-355.22,-45.161",
		pos="-339.85,-37.731 -349.97,-37.685 -360.56,-37.636 -370.33,-37.592"];
	client25	 [height=0.5,
		pos="-350.1,-162.43",
		width=1.0832];
	isp3node0 -- client25	 [label=cliente25,
		lp="-346.43,-92.713",
		pos="-300.96,-55.783 -311.86,-79.448 -331,-120.98 -341.9,-144.63"];
	client30	 [height=0.5,
		pos="-330,84.619",
		width=1.0832];
	isp3node0 -- client30	 [label=cliente30,
		lp="-336.35,15.785",
		pos="-298.23,-19.862 -305.28,3.3109 -317.42,43.251 -324.48,66.46"];
	client27	 [height=0.5,
		pos="-645.63,108.7",
		width=1.0832];
	isp3node5 -- client27	 [label=cliente27,
		lp="-597.55,67.001",
		pos="-521.41,25.079 -549.38,43.903 -595.84,75.18 -623.32,93.678"];
	client34	 [height=0.5,
		pos="-661.22,-14.335",
		width=1.0832];
	isp3node5 -- client34	 [label=cliente34,
		lp="-571.03,-10.568",
		pos="-542.19,2.9289 -567.77,-0.78137 -599.62,-5.4006 -623.93,-8.9271"];
	isp3node1	 [height=0.5,
		pos="-576.67,200.4",
		width=1.2999];
	isp3node1 -- isp3node2	 [label=isp3e3,
		lp="-518.89,161.66",
		pos="-551.63,185.12 -523.54,167.98 -478.24,140.33 -450.14,123.18"];
	isp3node3	 [height=0.5,
		pos="-669.06,-164.53",
		width=1.2999];
	isp3node3 -- isp3node4	 [label=isp3e4,
		lp="-594.2,-143.44",
		pos="-625.05,-158.09 -595.55,-153.77 -556.85,-148.11 -527.35,-143.79"];
	client4	 [height=0.5,
		pos="-843.08,-106.33",
		width=0.95686];
	isp3node3 -- client4	 [label=cliente4,
		lp="-781.58,-126.59",
		pos="-704.7,-152.61 -736.92,-141.84 -783.77,-126.17 -813.84,-116.11"];
	client13	 [height=0.5,
		pos="-801.38,-257.38",
		width=1.0832];
	isp3node3 -- client13	 [label=cliente13,
		lp="-760.98,-203.99",
		pos="-691.81,-180.49 -716.49,-197.81 -755.6,-225.25 -779.8,-242.24"];
	isp4node1	 [height=0.5,
		pos="-173.74,582.94",
		width=1.2999];
	isp4node3	 [height=0.5,
		pos="-53.126,678.96",
		width=1.2999];
	isp4node1 -- isp4node3	 [label=isp4e2,
		lp="-131.5,638.4",
		pos="-153.28,599.23 -131.1,616.89 -95.905,644.9 -73.687,662.59"];
	isp4node5	 [height=0.5,
		pos="-341.15,648.57",
		width=1.2999];
	isp4node1 -- isp4node5	 [label=isp4e3,
		lp="-275.49,623.27",
		pos="-206.81,595.91 -236.16,607.42 -278.81,624.14 -308.14,635.63"];
	isp4node4	 [height=0.5,
		pos="-34.877,495",
		width=1.2999];
	isp4node3 -- isp4node4	 [label=isp4e5,
		lp="-61.995,594.42",
		pos="-51.309,660.65 -47.811,625.38 -40.178,548.44 -36.686,513.23"];
	client9	 [height=0.5,
		pos="94.289,770.47",
		width=0.95686];
	isp4node3 -- client9	 [label=cliente9,
		lp="0.62764,733.18",
		pos="-28.452,694.27 -0.42027,711.68 44.928,739.83 71.951,756.61"];
	client20	 [height=0.5,
		pos="14.847,815.31",
		width=1.0832];
	isp4node3 -- client20	 [label=cliente20,
		lp="-44.141,754.63",
		pos="-44.239,696.78 -31.212,722.91 -7.0693,771.35 5.9589,797.48"];
	client0	 [height=0.5,
		pos="-432.76,791.16",
		width=0.95686];
	isp4node5 -- client0	 [label=cliente0,
		lp="-408.59,727.59",
		pos="-352.38,666.06 -370.06,693.57 -404.16,746.65 -421.72,773.98"];
	client2	 [height=0.5,
		pos="-279.11,792.01",
		width=0.95686];
	isp4node5 -- client2	 [label=cliente2,
		lp="-331.56,727.96",
		pos="-333.41,666.45 -321.46,694.09 -298.64,746.86 -286.74,774.36"];
	client19	 [height=0.5,
		pos="-524.92,649.48",
		width=1.0832];
	isp4node5 -- client19	 [label=cliente19,
		lp="-412.59,656.55",
		pos="-388,648.81 -418.3,648.96 -457.3,649.15 -485.91,649.29"];
	client31	 [height=0.5,
		pos="-492.16,729.09",
		width=1.0832];
	isp4node5 -- client31	 [label=cliente31,
		lp="-442.89,696.99",
		pos="-368.84,663.34 -396.69,678.19 -439.27,700.89 -466.4,715.35"];
	client32	 [height=0.5,
		pos="-352.27,828.32",
		width=1.0832];
	isp4node5 -- client32	 [label=cliente32,
		lp="-371.72,746.12",
		pos="-342.27,666.8 -344.41,701.34 -349.03,775.95 -351.16,810.32"];
	client39	 [height=0.5,
		pos="-476.7,584.45",
		width=1.0832];
	isp4node5 -- client39	 [label=cliente39,
		lp="-435.35,623.34",
		pos="-370.89,634.5 -394.28,623.44 -426.58,608.16 -449.33,597.4"];
	client26	 [height=0.5,
		pos="-257.89,440.3",
		width=1.0832];
	isp4node4 -- client26	 [label=cliente26,
		lp="-174.73,474.33",
		pos="-74.49,485.28 -116.8,474.91 -183.17,458.63 -223.4,448.76"];
	isp4node2	 [height=0.5,
		pos="-69.5,868.41",
		width=1.2999];
	isp4node2 -- isp4node3	 [label=isp4e4,
		lp="-79.309,781.14",
		pos="-67.93,850.24 -64.8,814.03 -57.817,733.23 -54.691,697.07"];
	client36	 [height=0.5,
		pos="-23.634,1035.8",
		width=1.0832];
	isp4node2 -- client36	 [label=cliente36,
		lp="-71.593,959.49",
		pos="-64.591,886.32 -55.787,918.45 -37.406,985.52 -28.577,1017.7"];
	isp4node0	 [height=0.5,
		pos="-89.387,337.98",
		width=1.2999];
	isp4node0 -- usnode2	 [label=uplinkisp4e0,
		lp="-82.528,244.21",
		pos="-81.96,320.01 -66.078,281.59 -28.974,191.83 -13.108,153.44"];
	isp4node0 -- isp4node1	 [label=isp4e0,
		lp="-149.56,452.94",
		pos="-95.589,355.99 -111.19,401.3 -151.92,519.57 -167.53,564.9"];
	isp4node0 -- isp4node4	 [label=isp4e1,
		lp="-80.203,423.78",
		pos="-83.134,355.99 -72.675,386.12 -51.747,446.4 -41.225,476.71"];
	isp5node1	 [height=0.5,
		pos="601.13,-395.21",
		width=1.2999];
	isp5node4	 [height=0.5,
		pos="392.1,-364.23",
		width=1.2999];
	isp5node1 -- isp5node4	 [label=isp5e2,
		lp="478.58,-372.21",
		pos="557.31,-388.71 521.64,-383.43 471.52,-376 435.86,-370.72"];
	isp5node3	 [height=0.5,
		pos="675.78,-552.51",
		width=1.2999];
	isp5node1 -- isp5node3	 [label=isp5e1,
		lp="620.39,-466.23",
		pos="609.55,-412.95 623.89,-443.16 652.89,-504.26 667.28,-534.59"];
	isp5node5	 [height=0.5,
		pos="781.09,-400.66",
		width=1.2999];
	isp5node1 -- isp5node5	 [label=isp5e3,
		lp="673.07,-390.43",
		pos="647.95,-396.63 674.5,-397.43 707.63,-398.43 734.2,-399.24"];
	client3	 [height=0.5,
		pos="718.1,-292.53",
		width=0.95686];
	isp5node1 -- client3	 [label=cliente3,
		lp="638.66,-335.89",
		pos="619.93,-378.71 642.01,-359.32 678.39,-327.39 700.12,-308.31"];
	client17	 [height=0.5,
		pos="498.78,-290.05",
		width=1.0832];
	isp5node4 -- client17	 [label=cliente17,
		lp="421.12,-319.17",
		pos="414.99,-348.32 433.35,-335.55 458.97,-317.74 477.03,-305.18"];
	client22	 [height=0.5,
		pos="309.25,-461.02",
		width=1.0832];
	isp5node4 -- client22	 [label=cliente22,
		lp="325.42,-405.43",
		pos="377.29,-381.53 362.12,-399.26 338.68,-426.64 323.65,-444.19"];
	client43	 [height=0.5,
		pos="453.13,-446.64",
		width=1.0832];
	isp5node4 -- client43	 [label=cliente43,
		lp="397.75,-398.12",
		pos="405.04,-381.71 415.47,-395.79 430.05,-415.47 440.42,-429.47"];
	client24	 [height=0.5,
		pos="772.58,-693.52",
		width=1.0832];
	isp5node3 -- client24	 [label=cliente24,
		lp="699.29,-615.68",
		pos="687.85,-570.08 706.49,-597.25 742.11,-649.13 760.66,-676.17"];
	client28	 [height=0.5,
		pos="914.48,-499.6",
		width=1.0832];
	isp5node5 -- client28	 [label=cliente28,
		lp="823.38,-443.06",
		pos="802.82,-416.77 827.92,-435.39 868.93,-465.81 893.64,-484.14"];
	client41	 [height=0.5,
		pos="940.28,-338.35",
		width=1.0832];
	isp5node5 -- client41	 [label=cliente41,
		lp="837.53,-361.28",
		pos="814.08,-387.75 842.4,-376.66 882.88,-360.82 910.3,-350.09"];
	isp5node0	 [height=0.5,
		pos="244.6,-222.93",
		width=1.2999];
	isp5node0 -- usnode1	 [label=uplinkisp5e0,
		lp="141.44,-137.68",
		pos="229.55,-205.76 203.31,-175.83 149.51,-114.47 123.52,-84.813"];
	isp5node0 -- isp5node4	 [label=isp5e0,
		lp="300.37,-286.1",
		pos="262.1,-239.7 290.49,-266.89 346.25,-320.31 374.63,-347.49"];
	client15	 [height=0.5,
		pos="351.59,-155.87",
		width=1.0832];
	isp5node0 -- client15	 [label=cliente15,
		lp="273.81,-181.45",
		pos="269.15,-207.55 286.91,-196.41 310.78,-181.45 328.26,-170.49"];
	isp5node2	 [height=0.5,
		pos="375.02,-566.54",
		width=1.2999];
	isp5node2 -- isp5node4	 [label=isp5e4,
		lp="401.58,-472.73",
		pos="376.57,-548.23 379.82,-509.71 387.33,-420.71 390.57,-382.35"];
	client5	 [height=0.5,
		pos="391.22,-735.15",
		width=0.95686];
	isp5node2 -- client5	 [label=cliente5,
		lp="361.61,-643.25",
		pos="376.76,-584.58 379.87,-616.95 386.35,-684.52 389.47,-716.98"];
	client10	 [height=0.5,
		pos="289.52,-710.05",
		width=1.0832];
	isp5node2 -- client10	 [label=cliente10,
		lp="307.34,-630.69",
		pos="364.54,-584.14 348.13,-611.68 316.56,-664.67 300.09,-692.31"];
	client21	 [height=0.5,
		pos="490.89,-688.28",
		width=1.0832];
	isp5node2 -- client21	 [label=cliente21,
		lp="408.05,-620.01",
		pos="391.14,-583.47 413.27,-606.72 452.85,-648.31 474.92,-671.49"];
}
